%YAML 1.1
%TAG !u! tag:unity3d.com,2011:
--- !u!1 &4538778209898745255
GameObject:
  m_ObjectHideFlags: 0
  m_CorrespondingSourceObject: {fileID: 0}
  m_PrefabInstance: {fileID: 0}
  m_PrefabAsset: {fileID: 0}
  serializedVersion: 6
  m_Component:
  - component: {fileID: 8856518113697010588}
  - component: {fileID: 2902919661597847510}
  m_Layer: 0
  m_Name: Wave 6
  m_TagString: Untagged
  m_Icon: {fileID: 0}
  m_NavMeshLayer: 0
  m_StaticEditorFlags: 0
  m_IsActive: 1
--- !u!4 &8856518113697010588
Transform:
  m_ObjectHideFlags: 0
  m_CorrespondingSourceObject: {fileID: 0}
  m_PrefabInstance: {fileID: 0}
  m_PrefabAsset: {fileID: 0}
  m_GameObject: {fileID: 4538778209898745255}
  m_LocalRotation: {x: 0, y: 0, z: 0, w: 1}
  m_LocalPosition: {x: -0.25451422, y: -4.9741364, z: 9.492502}
  m_LocalScale: {x: 1, y: 1, z: 1}
  m_Children: []
  m_Father: {fileID: 0}
  m_RootOrder: 0
  m_LocalEulerAnglesHint: {x: 0, y: 0, z: 0}
--- !u!114 &2902919661597847510
MonoBehaviour:
  m_ObjectHideFlags: 0
  m_CorrespondingSourceObject: {fileID: 0}
  m_PrefabInstance: {fileID: 0}
  m_PrefabAsset: {fileID: 0}
  m_GameObject: {fileID: 4538778209898745255}
  m_Enabled: 1
  m_EditorHideFlags: 0
  m_Script: {fileID: 11500000, guid: 08f68f34454c712408a1679a65d48e43, type: 3}
  m_Name: 
  m_EditorClassIdentifier: 
  time: 8
  spawnEnemyCooldown: 0.8
  enemies:
  - {fileID: 7627305350589754476, guid: d1bf6cd36105bfa44abbe0c38ca792a0, type: 3}
  - {fileID: 7627305350589754476, guid: b3f5a2d4860ce174ba109e6ae78de631, type: 3}
  - {fileID: 7627305350589754476, guid: d1bf6cd36105bfa44abbe0c38ca792a0, type: 3}
